Organization/吳凱強/homework/CO_Lab/CO_Lab_3_v4/demo/lab3_cpu.vcd
$date
	Mon Jun  8 20:42:06 2020
$end
$version
	Icarus Verilog
$end
$timescale
	1s
$end
$scope module TestBench $end
$scope module cpu $end
$var wire 1 ! Jump $end
$var wire 1 " RegWrite_control $end
$var wire 1 # branch_mux_control $end
$var wire 1 $ clk_i $end
$var wire 1 % rst_i $end
$var wire 1 & zero $end
$var wire 5 ' write_ad [4:0] $end
$var wire 32 ( sl2_result [31:0] $end
$var wire 5 ) sh [4:0] $end
$var wire 32 * se_result [31:0] $end
$var wire 32 + rt_data [31:0] $end
$var wire 5 , rt [4:0] $end
$var wire 32 - rs_data [31:0] $end
$var wire 5 . rs [4:0] $end
$var wire 5 / rd [4:0] $end
$var wire 32 0 pc_src1 [31:0] $end
$var wire 32 1 pc_plus4 [31:0] $end
$var wire 32 2 pc_out [31:0] $end
$var wire 32 3 pc_in [31:0] $end
$var wire 6 4 op [5:0] $end
$var wire 32 5 memory_data [31:0] $end
$var wire 32 6 jump_src1 [31:0] $end
$var wire 32 7 jump_ad [31:0] $end
$var wire 32 8 ins [31:0] $end
$var wire 16 9 im [15:0] $end
$var wire 6 : func [5:0] $end
$var wire 32 ; data_writeback [31:0] $end
$var wire 1 < RegWrite2 $end
$var wire 1 = RegWrite $end
$var wire 2 > RegDst [1:0] $end
$var wire 1 ? MemWrite $end
$var wire 2 @ MemToReg [1:0] $end
$var wire 1 A MemRead $end
$var wire 1 B JumpSrc $end
$var wire 1 C Jump2 $end
$var wire 1 D Jump1 $end
$var wire 32 E Branch_ad [31:0] $end
$var wire 1 F Branch $end
$var wire 32 G ALU_src2 [31:0] $end
$var wire 32 H ALU_result [31:0] $end
$var wire 4 I ALU_op [3:0] $end
$var wire 5 J ALU_control [4:0] $end
$var wire 1 K ALUSrc $end
$scope module AC $end
$var wire 6 L funct_i [5:0] $end
$var wire 4 M ALUOp_i [3:0] $end
$var reg 5 N ALUCtrl_o [4:0] $end
$var reg 1 C Jump2 $end
$var reg 1 B JumpSrc $end
$var reg 1 < RegWrite2 $end
$upscope $end
$scope module ALU $end
$var wire 5 O ctrl_i [4:0] $end
$var wire 5 P shamt [4:0] $end
$var wire 32 Q signed_src1 [31:0] $end
$var wire 32 R signed_src2 [31:0] $end
$var wire 32 S src2_i [31:0] $end
$var wire 32 T src1_i [31:0] $end
$var reg 32 U result_o [31:0] $end
$var reg 1 & zero_o $end
$upscope $end
$scope module Adder1 $end
$var wire 32 V src2_i [31:0] $end
$var wire 32 W sum_o [31:0] $end
$var wire 32 X src1_i [31:0] $end
$upscope $end
$scope module Adder2 $end
$var wire 32 Y src1_i [31:0] $end
$var wire 32 Z sum_o [31:0] $end
$var wire 32 [ src2_i [31:0] $end
$upscope $end
$scope module Data_Memory $end
$var wire 32 \ addr_i [31:0] $end
$var wire 1 $ clk_i $end
$var wire 32 ] data_i [31:0] $end
$var wire 1 ? MemWrite_i $end
$var wire 1 A MemRead_i $end
$var reg 32 ^ data_o [31:0] $end
$var integer 32 _ i [31:0] $end
$upscope $end
$scope module Decoder $end
$var wire 6 ` instr_op_i [5:0] $end
$var reg 1 K ALUSrc_o $end
$var reg 4 a ALU_op_o [3:0] $end
$var reg 1 F Branch_o $end
$var reg 1 D Jump_o $end
$var reg 1 A MemRead_o $end
$var reg 2 b MemToReg_o [1:0] $end
$var reg 1 ? MemWrite_o $end
$var reg 2 c RegDst_o [1:0] $end
$var reg 1 = RegWrite_o $end
$upscope $end
$scope module IM $end
$var wire 32 d pc_addr_i [31:0] $end
$var reg 32 e instr_o [31:0] $end
$var integer 32 f i [31:0] $end
$upscope $end
$scope module Mux_ALUSrc $end
$var wire 1 K select_i $end
$var wire 32 g data1_i [31:0] $end
$var wire 32 h data0_i [31:0] $end
$var reg 32 i data_o [31:0] $end
$upscope $end
$scope module Mux_MemtoReg $end
$var wire 32 j data0_i [31:0] $end
$var wire 32 k data1_i [31:0] $end
$var wire 32 l data2_i [31:0] $end
$var wire 32 m data3_i [31:0] $end
$var wire 2 n select_i [1:0] $end
$var reg 32 o data_o [31:0] $end
$upscope $end
$scope module Mux_Write_Reg $end
$var wire 5 p data0_i [4:0] $end
$var wire 5 q data1_i [4:0] $end
$var wire 5 r data2_i [4:0] $end
$var wire 5 s data3_i [4:0] $end
$var wire 2 t select_i [1:0] $end
$var reg 5 u data_o [4:0] $end
$upscope $end
$scope module Mux_branch_or_pcplus4 $end
$var wire 32 v data0_i [31:0] $end
$var wire 32 w data1_i [31:0] $end
$var wire 1 # select_i $end
$var reg 32 x data_o [31:0] $end
$upscope $end
$scope module Mux_jump_Source $end
$var wire 32 y data0_i [31:0] $end
$var wire 1 B select_i $end
$var wire 32 z data1_i [31:0] $end
$var reg 32 { data_o [31:0] $end
$upscope $end
$scope module Mux_pc_Source $end
$var wire 32 | data0_i [31:0] $end
$var wire 32 } data1_i [31:0] $end
$var wire 1 ! select_i $end
$var reg 32 ~ data_o [31:0] $end
$upscope $end
$scope module PC $end
$var wire 1 $ clk_i $end
$var wire 32 !" pc_in_i [31:0] $end
$var wire 1 % rst_i $end
$var reg 32 "" pc_out_o [31:0] $end
$upscope $end
$scope module RF $end
$var wire 5 #" RDaddr_i [4:0] $end
$var wire 32 $" RDdata_i [31:0] $end
$var wire 5 %" RSaddr_i [4:0] $end
$var wire 32 &" RSdata_o [31:0] $end
$var wire 5 '" RTaddr_i [4:0] $end
$var wire 32 (" RTdata_o [31:0] $end
$var wire 1 " RegWrite_i $end
$var wire 1 $ clk_i $end
$var wire 1 % rst_i $end
$upscope $end
$scope module SE $end
$var wire 16 )" data_i [15:0] $end
$var reg 32 *" data_o [31:0] $end
$upscope $end
$scope module Shifter $end
$var wire 32 +" data_i [31:0] $end
$var wire 32 ," data_o [31:0] $end
$upscope $end
$upscope $end
$upscope $end
$enddefinitions $end
#0
$dumpvars
bx00 ,"
bx +"
bx *"
bx )"
bx ("
bx '"
bx &"
bx %"
bx $"
bx #"
bx ""
bx !"
bx ~
bx00 }
bx |
bx00 {
bx z
bx00 y
bx x
bx w
bx v
bx u
bx t
b0 s
b11111 r
bx q
bx p
bx o
bx n
b0 m
bx l
bx k
bx j
bx i
bx h
bx g
b100000 f
bx e
bx d
bx c
bx b
bx a
bx `
b10000000 _
bx ^
bx ]
bx \
bx00 [
bx Z
bx Y
bx X
bx W
b100 V
bx U
bx T
bx S
bx R
bx Q
bx P
bx O
bx N
bx M
bx L
xK
bx J
bx I
bx H
bx G
xF
bx E
xD
xC
xB
xA
bx @
x?
bx >
x=
x<
bx ;
bx :
bx 9
bx 8
bx00 7
bx00 6
bx 5
bx 4
bx 3
bx 2
bx 1
bx 0
bx /
bx .
bx -
bx ,
bx +
bx *
bx )
bx00 (
bx '
x&
0%
0$
x#
x"
x!
$end
#5
b101000000000000000000000000 5
b101000000000000000000000000 ^
b101000000000000000000000000 j
b1 ;
b1 o
b1 $"
b1 H
b1 U
b1 \
b1 k
b1000 E
b1000 Z
b1000 w
b100 (
b100 [
b100 ,"
0!
b1 '
b1 u
b1 #"
1"
0B
0C
1<
b1010 J
b1010 N
b1010 O
0#
b1 *
b1 g
b1 *"
b1 +"
0?
1A
0D
b1 @
b1 b
b1 n
b0 >
b0 c
b0 t
1K
1=
0F
b1 I
b1 M
b1 a
b1 R
b1 G
b1 S
b1 i
0&
b1000000000000000100 7
b1000000000000000100 {
b1000000000000000100 }
b100 3
b100 ~
b100 !"
b1 9
b1 )"
b1000 4
b1000 `
b0 Q
b0 -
b0 T
b0 z
b0 &"
b0 .
b0 %"
b1 +
b1 ]
b1 h
b1 ("
b1 ,
b1 p
b1 '"
b0 /
b0 q
b0 )
b0 P
b1 :
b1 L
b1000000000000000100 6
b1000000000000000100 y
b100 0
b100 x
b100 |
b100000000000010000000000000001 8
b100000000000010000000000000001 e
b100 1
b100 W
b100 Y
b100 l
b100 v
b0 2
b0 X
b0 d
b0 ""
1$
#10
0$
1%
#15
b11000000000 5
b11000000000 ^
b11000000000 j
b111 ;
b111 o
b111 $"
b111 H
b111 U
b111 \
b111 k
b11100 (
b11100 [
b11100 ,"
b111 R
b111 G
b111 S
b111 i
b111 *
b111 g
b111 *"
b111 +"
b10000000000000011100 7
b10000000000000011100 {
b10000000000000011100 }
b10 '
b10 u
b10 #"
b1000 3
b1000 ~
b1000 !"
b111 9
b111 )"
b10000000000000011100 6
b10000000000000011100 y
b10 +
b10 ]
b10 h
b10 ("
b10 ,
b10 p
b10 '"
b111 :
b111 L
b1000 0
b1000 x
b1000 |
b100000000000100000000000000111 8
b100000000000100000000000000111 e
b100100 E
b100100 Z
b100100 w
b1000 1
b1000 W
b1000 Y
b1000 l
b1000 v
b100 2
b100 X
b100 d
b100 ""
1$
#20
0$
#25
b101 5
b101 ^
b101 j
b100 ;
b100 o
b100 $"
b100 H
b100 U
b100 \
b100 k
b110001000000000 (
b110001000000000 [
b110001000000000 ,"
b111 J
b111 N
b111 O
b1 R
b1 G
b1 S
b1 i
b1100010000000 *
b1100010000000 g
b1100010000000 *"
b1100010000000 +"
b1000110001000000000 7
b1000110001000000000 {
b1000110001000000000 }
b0 I
b0 M
b0 a
0K
b1 >
b1 c
b1 t
b11 '
b11 u
b11 #"
b1100 3
b1100 ~
b1100 !"
b1100010000000 9
b1100010000000 )"
b1000110001000000000 6
b1000110001000000000 y
b0 4
b0 `
b1 ,
b1 p
b1 '"
b11 /
b11 q
b10 )
b10 P
b0 :
b0 L
b1100 0
b1100 x
b1100 |
b10001100010000000 8
b10001100010000000 e
b110001000001100 E
b110001000001100 Z
b110001000001100 w
b1100 1
b1100 W
b1100 Y
b1100 l
b1100 v
b1000 2
b1000 X
b1000 d
b1000 ""
b1 +
b1 ]
b1 h
b1 ("
1$
#30
0$
#35
b1000010100000000 (
b1000010100000000 [
b1000010100000000 ,"
bx 5
bx ^
bx j
b11100000 ;
b11100000 o
b11100000 $"
b10000101000000 *
b10000101000000 g
b10000101000000 *"
b10000101000000 +"
b10001000010100000000 7
b10001000010100000000 {
b10001000010100000000 }
b111 R
b111 G
b111 S
b111 i
b100 '
b100 u
b100 #"
b11100000 H
b11100000 U
b11100000 \
b11100000 k
b10000 3
b10000 ~
b10000 !"
b10000101000000 9
b10000101000000 )"
b10001000010100000000 6
b10001000010100000000 y
b111 +
b111 ]
b111 h
b111 ("
b10 ,
b10 p
b10 '"
b100 /
b100 q
b101 )
b101 P
b10000 0
b10000 x
b10000 |
b100010000101000000 8
b100010000101000000 e
b1000010100010000 E
b1000010100010000 Z
b1000010100010000 w
b10000 1
b10000 W
b10000 Y
b10000 l
b10000 v
b1100 2
b1100 X
b1100 d
b1100 ""
1$
#40
0$
#45
b0 (
b0 [
b0 ,"
b100 5
b100 ^
b100 j
b0 ;
b0 o
b0 $"
b0 *
b0 g
b0 *"
b0 +"
b0 7
b0 {
b0 }
b0 R
b0 G
b0 S
b0 i
b0 '
b0 u
b0 #"
b0 H
b0 U
b0 \
b0 k
b10100 3
b10100 ~
b10100 !"
b0 9
b0 )"
b0 6
b0 y
b0 +
b0 ]
b0 h
b0 ("
b0 ,
b0 p
b0 '"
b0 /
b0 q
b0 )
b0 P
b10100 0
b10100 x
b10100 |
b0 8
b0 e
b10100 E
b10100 Z
b10100 w
b10100 1
b10100 W
b10100 Y
b10100 l
b10100 v
b10000 2
b10000 X
b10000 d
b10000 ""
1$
#50
0$
#55
b11000 3
b11000 ~
b11000 !"
b11000 0
b11000 x
b11000 |
b11000 E
b11000 Z
b11000 w
b11000 1
b11000 W
b11000 Y
b11000 l
b11000 v
b10100 2
b10100 X
b10100 d
b10100 ""
1$
#60
0$
#65
b11100 3
b11100 ~
b11100 !"
b11100 0
b11100 x
b11100 |
b11100 E
b11100 Z
b11100 w
b11100 1
b11100 W
b11100 Y
b11100 l
b11100 v
b11000 2
b11000 X
b11000 d
b11000 ""
1$
#70
0$
#75
b100000 3
b100000 ~
b100000 !"
b100000 0
b100000 x
b100000 |
b100000 E
b100000 Z
b100000 w
b100000 1
b100000 W
b100000 Y
b100000 l
b100000 v
b11100 2
b11100 X
b11100 d
b11100 ""
1$
#80
0$
#85
b100100 3
b100100 ~
b100100 !"
b100100 0
b100100 x
b100100 |
b100100 E
b100100 Z
b100100 w
b100100 1
b100100 W
b100100 Y
b100100 l
b100100 v
b100000 2
b100000 X
b100000 d
b100000 ""
1$
#90
0$
#95
b101000 3
b101000 ~
b101000 !"
b101000 0
b101000 x
b101000 |
b101000 E
b101000 Z
b101000 w
b101000 1
b101000 W
b101000 Y
b101000 l
b101000 v
b100100 2
b100100 X
b100100 d
b100100 ""
1$
#100
0$
#105
b101100 3
b101100 ~
b101100 !"
b101100 0
b101100 x
b101100 |
b101100 E
b101100 Z
b101100 w
b101100 1
b101100 W
b101100 Y
b101100 l
b101100 v
b101000 2
b101000 X
b101000 d
b101000 ""
1$
#110
0$
#115
b110000 3
b110000 ~
b110000 !"
b110000 0
b110000 x
b110000 |
b110000 E
b110000 Z
b110000 w
b110000 1
b110000 W
b110000 Y
b110000 l
b110000 v
b101100 2
b101100 X
b101100 d
b101100 ""
1$
#120
0$
#125
b110100 3
b110100 ~
b110100 !"
b110100 0
b110100 x
b110100 |
b110100 E
b110100 Z
b110100 w
b110100 1
b110100 W
b110100 Y
b110100 l
b110100 v
b110000 2
b110000 X
b110000 d
b110000 ""
1$
#130
0$
#135
b111000 3
b111000 ~
b111000 !"
b111000 0
b111000 x
b111000 |
b111000 E
b111000 Z
b111000 w
b111000 1
b111000 W
b111000 Y
b111000 l
b111000 v
b110100 2
b110100 X
b110100 d
b110100 ""
1$
#140
0$
#145
b111100 3
b111100 ~
b111100 !"
b111100 0
b111100 x
b111100 |
b111100 E
b111100 Z
b111100 w
b111100 1
b111100 W
b111100 Y
b111100 l
b111100 v
b111000 2
b111000 X
b111000 d
b111000 ""
1$
#150
0$
#155
b1000000 3
b1000000 ~
b1000000 !"
b1000000 0
b1000000 x
b1000000 |
b1000000 E
b1000000 Z
b1000000 w
b1000000 1
b1000000 W
b1000000 Y
b1000000 l
b1000000 v
b111100 2
b111100 X
b111100 d
b111100 ""
1$
#160
0$
#165
b1000100 3
b1000100 ~
b1000100 !"
b1000100 0
b1000100 x
b1000100 |
b1000100 E
b1000100 Z
b1000100 w
b1000100 1
b1000100 W
b1000100 Y
b1000100 l
b1000100 v
b1000000 2
b1000000 X
b1000000 d
b1000000 ""
1$
#170
0$
#175
b1001000 3
b1001000 ~
b1001000 !"
b1001000 0
b1001000 x
b1001000 |
b1001000 E
b1001000 Z
b1001000 w
b1001000 1
b1001000 W
b1001000 Y
b1001000 l
b1001000 v
b1000100 2
b1000100 X
b1000100 d
b1000100 ""
1$
#180
0$
#185
b1001100 3
b1001100 ~
b1001100 !"
b1001100 0
b1001100 x
b1001100 |
b1001100 E
b1001100 Z
b1001100 w
b1001100 1
b1001100 W
b1001100 Y
b1001100 l
b1001100 v
b1001000 2
b1001000 X
b1001000 d
b1001000 ""
1$
#190
0$
#195
b1010000 3
b1010000 ~
b1010000 !"
b1010000 0
b1010000 x
b1010000 |
b1010000 E
b1010000 Z
b1010000 w
b1010000 1
b1010000 W
b1010000 Y
b1010000 l
b1010000 v
b1001100 2
b1001100 X
b1001100 d
b1001100 ""
1$
#200
0$
#205
b1010100 3
b1010100 ~
b1010100 !"
b1010100 0
b1010100 x
b1010100 |
b1010100 E
b1010100 Z
b1010100 w
b1010100 1
b1010100 W
b1010100 Y
b1010100 l
b1010100 v
b1010000 2
b1010000 X
b1010000 d
b1010000 ""
1$
#210
0$
#215
b1011000 3
b1011000 ~
b1011000 !"
b1011000 0
b1011000 x
b1011000 |
b1011000 E
b1011000 Z
b1011000 w
b1011000 1
b1011000 W
b1011000 Y
b1011000 l
b1011000 v
b1010100 2
b1010100 X
b1010100 d
b1010100 ""
1$
#220
0$
#225
b1011100 3
b1011100 ~
b1011100 !"
b1011100 0
b1011100 x
b1011100 |
b1011100 E
b1011100 Z
b1011100 w
b1011100 1
b1011100 W
b1011100 Y
b1011100 l
b1011100 v
b1011000 2
b1011000 X
b1011000 d
b1011000 ""
1$
#230
0$
#235
b1100000 3
b1100000 ~
b1100000 !"
b1100000 0
b1100000 x
b1100000 |
b1100000 E
b1100000 Z
b1100000 w
b1100000 1
b1100000 W
b1100000 Y
b1100000 l
b1100000 v
b1011100 2
b1011100 X
b1011100 d
b1011100 ""
1$
#240
0$
#245
b1100100 3
b1100100 ~
b1100100 !"
b1100100 0
b1100100 x
b1100100 |
b1100100 E
b1100100 Z
b1100100 w
b1100100 1
b1100100 W
b1100100 Y
b1100100 l
b1100100 v
b1100000 2
b1100000 X
b1100000 d
b1100000 ""
1$
#250
0$
#255
b1101000 3
b1101000 ~
b1101000 !"
b1101000 0
b1101000 x
b1101000 |
b1101000 E
b1101000 Z
b1101000 w
b1101000 1
b1101000 W
b1101000 Y
b1101000 l
b1101000 v
b1100100 2
b1100100 X
b1100100 d
b1100100 ""
1$
#260
0$
#265
b1101100 3
b1101100 ~
b1101100 !"
b1101100 0
b1101100 x
b1101100 |
b1101100 E
b1101100 Z
b1101100 w
b1101100 1
b1101100 W
b1101100 Y
b1101100 l
b1101100 v
b1101000 2
b1101000 X
b1101000 d
b1101000 ""
1$
#270
0$
#275
b1110000 3
b1110000 ~
b1110000 !"
b1110000 0
b1110000 x
b1110000 |
b1110000 E
b1110000 Z
b1110000 w
b1110000 1
b1110000 W
b1110000 Y
b1110000 l
b1110000 v
b1101100 2
b1101100 X
b1101100 d
b1101100 ""
1$
#280
0$
#285
b1110100 3
b1110100 ~
b1110100 !"
b1110100 0
b1110100 x
b1110100 |
b1110100 E
b1110100 Z
b1110100 w
b1110100 1
b1110100 W
b1110100 Y
b1110100 l
b1110100 v
b1110000 2
b1110000 X
b1110000 d
b1110000 ""
1$
#290
0$
#295
b1111000 3
b1111000 ~
b1111000 !"
b1111000 0
b1111000 x
b1111000 |
b1111000 E
b1111000 Z
b1111000 w
b1111000 1
b1111000 W
b1111000 Y
b1111000 l
b1111000 v
b1110100 2
b1110100 X
b1110100 d
b1110100 ""
1$
#300
0$
#305
b1111100 3
b1111100 ~
b1111100 !"
b1111100 0
b1111100 x
b1111100 |
b1111100 E
b1111100 Z
b1111100 w
b1111100 1
b1111100 W
b1111100 Y
b1111100 l
b1111100 v
b1111000 2
b1111000 X
b1111000 d
b1111000 ""
1$
#310
0$
#315
b10000000 3
b10000000 ~
b10000000 !"
b10000000 0
b10000000 x
b10000000 |
b10000000 E
b10000000 Z
b10000000 w
b10000000 1
b10000000 W
b10000000 Y
b10000000 l
b10000000 v
b1111100 2
b1111100 X
b1111100 d
b1111100 ""
1$
#320
0$
#325
bx00 (
bx00 [
bx00 ,"
bx 5
bx ^
bx j
bx ;
bx o
bx $"
bx *
bx g
bx *"
bx +"
1K
b0xxxxxxxxxxxxxxxxxxxxxxxxxx00 7
b0xxxxxxxxxxxxxxxxxxxxxxxxxx00 {
b0xxxxxxxxxxxxxxxxxxxxxxxxxx00 }
bx R
bx G
bx S
bx i
bx '
bx u
bx #"
bx H
bx U
bx \
bx k
b10000100 3
b10000100 ~
b10000100 !"
bx 9
bx )"
b0xxxxxxxxxxxxxxxxxxxxxxxxxx00 6
b0xxxxxxxxxxxxxxxxxxxxxxxxxx00 y
bx 4
bx `
bx Q
bx -
bx T
bx z
bx &"
bx .
bx %"
bx +
bx ]
bx h
bx ("
bx ,
bx p
bx '"
bx /
bx q
bx )
bx P
bx :
bx L
b10000100 0
b10000100 x
b10000100 |
bx 8
bx e
bx E
bx Z
bx w
b10000100 1
b10000100 W
b10000100 Y
b10000100 l
b10000100 v
b10000000 2
b10000000 X
b10000000 d
b10000000 ""
1$
#330
0$
#335
b10001000 3
b10001000 ~
b10001000 !"
b10001000 0
b10001000 x
b10001000 |
b10001000 1
b10001000 W
b10001000 Y
b10001000 l
b10001000 v
b10000100 2
b10000100 X
b10000100 d
b10000100 ""
1$
#340
0$
#345
b10001100 3
b10001100 ~
b10001100 !"
b10001100 0
b10001100 x
b10001100 |
b10001100 1
b10001100 W
b10001100 Y
b10001100 l
b10001100 v
b10001000 2
b10001000 X
b10001000 d
b10001000 ""
1$
#350
0$
#355
b10010000 3
b10010000 ~
b10010000 !"
b10010000 0
b10010000 x
b10010000 |
b10010000 1
b10010000 W
b10010000 Y
b10010000 l
b10010000 v
b10001100 2
b10001100 X
b10001100 d
b10001100 ""
1$
#360
0$
#365
b10010100 3
b10010100 ~
b10010100 !"
b10010100 0
b10010100 x
b10010100 |
b10010100 1
b10010100 W
b10010100 Y
b10010100 l
b10010100 v
b10010000 2
b10010000 X
b10010000 d
b10010000 ""
1$
#370
0$
#375
b10011000 3
b10011000 ~
b10011000 !"
b10011000 0
b10011000 x
b10011000 |
b10011000 1
b10011000 W
b10011000 Y
b10011000 l
b10011000 v
b10010100 2
b10010100 X
b10010100 d
b10010100 ""
1$
#380
0$
#385
b10011100 3
b10011100 ~
b10011100 !"
b10011100 0
b10011100 x
b10011100 |
b10011100 1
b10011100 W
b10011100 Y
b10011100 l
b10011100 v
b10011000 2
b10011000 X
b10011000 d
b10011000 ""
1$
#390
0$
#395
b10100000 3
b10100000 ~
b10100000 !"
b10100000 0
b10100000 x
b10100000 |
b10100000 1
b10100000 W
b10100000 Y
b10100000 l
b10100000 v
b10011100 2
b10011100 X
b10011100 d
b10011100 ""
1$
#400
0$
#405
b10100100 3
b10100100 ~
b10100100 !"
b10100100 0
b10100100 x
b10100100 |
b10100100 1
b10100100 W
b10100100 Y
b10100100 l
b10100100 v
b10100000 2
b10100000 X
b10100000 d
b10100000 ""
1$
#410
0$
#415
b10101000 3
b10101000 ~
b10101000 !"
b10101000 0
b10101000 x
b10101000 |
b10101000 1
b10101000 W
b10101000 Y
b10101000 l
b10101000 v
b10100100 2
b10100100 X
b10100100 d
b10100100 ""
1$
#420
0$
#425
b10101100 3
b10101100 ~
b10101100 !"
b10101100 0
b10101100 x
b10101100 |
b10101100 1
b10101100 W
b10101100 Y
b10101100 l
b10101100 v
b10101000 2
b10101000 X
b10101000 d
b10101000 ""
1$
#430
0$
#435
b10110000 3
b10110000 ~
b10110000 !"
b10110000 0
b10110000 x
b10110000 |
b10110000 1
b10110000 W
b10110000 Y
b10110000 l
b10110000 v
b10101100 2
b10101100 X
b10101100 d
b10101100 ""
1$
#440
0$
#445
b10110100 3
b10110100 ~
b10110100 !"
b10110100 0
b10110100 x
b10110100 |
b10110100 1
b10110100 W
b10110100 Y
b10110100 l
b10110100 v
b10110000 2
b10110000 X
b10110000 d
b10110000 ""
1$
#450
0$
#455
b10111000 3
b10111000 ~
b10111000 !"
b10111000 0
b10111000 x
b10111000 |
b10111000 1
b10111000 W
b10111000 Y
b10111000 l
b10111000 v
b10110100 2
b10110100 X
b10110100 d
b10110100 ""
1$
#460
0$
#465
b10111100 3
b10111100 ~
b10111100 !"
b10111100 0
b10111100 x
b10111100 |
b10111100 1
b10111100 W
b10111100 Y
b10111100 l
b10111100 v
b10111000 2
b10111000 X
b10111000 d
b10111000 ""
1$
#470
0$
#475
b11000000 3
b11000000 ~
b11000000 !"
b11000000 0
b11000000 x
b11000000 |
b11000000 1
b11000000 W
b11000000 Y
b11000000 l
b11000000 v
b10111100 2
b10111100 X
b10111100 d
b10111100 ""
1$
#480
0$
#485
b11000100 3
b11000100 ~
b11000100 !"
b11000100 0
b11000100 x
b11000100 |
b11000100 1
b11000100 W
b11000100 Y
b11000100 l
b11000100 v
b11000000 2
b11000000 X
b11000000 d
b11000000 ""
1$
#490
0$
#495
b11001000 3
b11001000 ~
b11001000 !"
b11001000 0
b11001000 x
b11001000 |
b11001000 1
b11001000 W
b11001000 Y
b11001000 l
b11001000 v
b11000100 2
b11000100 X
b11000100 d
b11000100 ""
1$
#500
0$
#505
b11001100 3
b11001100 ~
b11001100 !"
b11001100 0
b11001100 x
b11001100 |
b11001100 1
b11001100 W
b11001100 Y
b11001100 l
b11001100 v
b11001000 2
b11001000 X
b11001000 d
b11001000 ""
1$
#510
0$
#515
b11010000 3
b11010000 ~
b11010000 !"
b11010000 0
b11010000 x
b11010000 |
b11010000 1
b11010000 W
b11010000 Y
b11010000 l
b11010000 v
b11001100 2
b11001100 X
b11001100 d
b11001100 ""
1$
#520
0$
#525
b11010100 3
b11010100 ~
b11010100 !"
b11010100 0
b11010100 x
b11010100 |
b11010100 1
b11010100 W
b11010100 Y
b11010100 l
b11010100 v
b11010000 2
b11010000 X
b11010000 d
b11010000 ""
1$
#530
0$
#535
b11011000 3
b11011000 ~
b11011000 !"
b11011000 0
b11011000 x
b11011000 |
b11011000 1
b11011000 W
b11011000 Y
b11011000 l
b11011000 v
b11010100 2
b11010100 X
b11010100 d
b11010100 ""
1$
#540
0$
#545
b11011100 3
b11011100 ~
b11011100 !"
b11011100 0
b11011100 x
b11011100 |
b11011100 1
b11011100 W
b11011100 Y
b11011100 l
b11011100 v
b11011000 2
b11011000 X
b11011000 d
b11011000 ""
1$
#550
0$
#555
b11100000 3
b11100000 ~
b11100000 !"
b11100000 0
b11100000 x
b11100000 |
b11100000 1
b11100000 W
b11100000 Y
b11100000 l
b11100000 v
b11011100 2
b11011100 X
b11011100 d
b11011100 ""
1$
#560
0$
#565
b11100100 3
b11100100 ~
b11100100 !"
b11100100 0
b11100100 x
b11100100 |
b11100100 1
b11100100 W
b11100100 Y
b11100100 l
b11100100 v
b11100000 2
b11100000 X
b11100000 d
b11100000 ""
1$
#570
0$
#575
b11101000 3
b11101000 ~
b11101000 !"
b11101000 0
b11101000 x
b11101000 |
b11101000 1
b11101000 W
b11101000 Y
b11101000 l
b11101000 v
b11100100 2
b11100100 X
b11100100 d
b11100100 ""
1$
#580
0$
#585
b11101100 3
b11101100 ~
b11101100 !"
b11101100 0
b11101100 x
b11101100 |
b11101100 1
b11101100 W
b11101100 Y
b11101100 l
b11101100 v
b11101000 2
b11101000 X
b11101000 d
b11101000 ""
1$
#590
0$
#595
b11110000 3
b11110000 ~
b11110000 !"
b11110000 0
b11110000 x
b11110000 |
b11110000 1
b11110000 W
b11110000 Y
b11110000 l
b11110000 v
b11101100 2
b11101100 X
b11101100 d
b11101100 ""
1$
#600
0$
#605
b11110100 3
b11110100 ~
b11110100 !"
b11110100 0
b11110100 x
b11110100 |
b11110100 1
b11110100 W
b11110100 Y
b11110100 l
b11110100 v
b11110000 2
b11110000 X
b11110000 d
b11110000 ""
1$
#610
0$
#615
b11111000 3
b11111000 ~
b11111000 !"
b11111000 0
b11111000 x
b11111000 |
b11111000 1
b11111000 W
b11111000 Y
b11111000 l
b11111000 v
b11110100 2
b11110100 X
b11110100 d
b11110100 ""
1$
#620
0$
#625
b11111100 3
b11111100 ~
b11111100 !"
b11111100 0
b11111100 x
b11111100 |
b11111100 1
b11111100 W
b11111100 Y
b11111100 l
b11111100 v
b11111000 2
b11111000 X
b11111000 d
b11111000 ""
1$
#630
0$
#635
b100000000 3
b100000000 ~
b100000000 !"
b100000000 0
b100000000 x
b100000000 |
b100000000 1
b100000000 W
b100000000 Y
b100000000 l
b100000000 v
b11111100 2
b11111100 X
b11111100 d
b11111100 ""
1$
#640
0$
#645
b100000100 3
b100000100 ~
b100000100 !"
b100000100 0
b100000100 x
b100000100 |
b100000100 1
b100000100 W
b100000100 Y
b100000100 l
b100000100 v
b100000000 2
b100000000 X
b100000000 d
b100000000 ""
1$
#650
0$
#655
b100001000 3
b100001000 ~
b100001000 !"
b100001000 0
b100001000 x
b100001000 |
b100001000 1
b100001000 W
b100001000 Y
b100001000 l
b100001000 v
b100000100 2
b100000100 X
b100000100 d
b100000100 ""
1$
#660
0$
#665
b100001100 3
b100001100 ~
b100001100 !"
b100001100 0
b100001100 x
b100001100 |
b100001100 1
b100001100 W
b100001100 Y
b100001100 l
b100001100 v
b100001000 2
b100001000 X
b100001000 d
b100001000 ""
1$
#670
0$
#675
b100010000 3
b100010000 ~
b100010000 !"
b100010000 0
b100010000 x
b100010000 |
b100010000 1
b100010000 W
b100010000 Y
b100010000 l
b100010000 v
b100001100 2
b100001100 X
b100001100 d
b100001100 ""
1$
#680
0$
#685
b100010100 3
b100010100 ~
b100010100 !"
b100010100 0
b100010100 x
b100010100 |
b100010100 1
b100010100 W
b100010100 Y
b100010100 l
b100010100 v
b100010000 2
b100010000 X
b100010000 d
b100010000 ""
1$
#690
0$
#695
b100011000 3
b100011000 ~
b100011000 !"
b100011000 0
b100011000 x
b100011000 |
b100011000 1
b100011000 W
b100011000 Y
b100011000 l
b100011000 v
b100010100 2
b100010100 X
b100010100 d
b100010100 ""
1$
#700
0$
#705
b100011100 3
b100011100 ~
b100011100 !"
b100011100 0
b100011100 x
b100011100 |
b100011100 1
b100011100 W
b100011100 Y
b100011100 l
b100011100 v
b100011000 2
b100011000 X
b100011000 d
b100011000 ""
1$
#710
0$
#715
b100100000 3
b100100000 ~
b100100000 !"
b100100000 0
b100100000 x
b100100000 |
b100100000 1
b100100000 W
b100100000 Y
b100100000 l
b100100000 v
b100011100 2
b100011100 X
b100011100 d
b100011100 ""
1$
#720
0$
#725
b100100100 3
b100100100 ~
b100100100 !"
b100100100 0
b100100100 x
b100100100 |
b100100100 1
b100100100 W
b100100100 Y
b100100100 l
b100100100 v
b100100000 2
b100100000 X
b100100000 d
b100100000 ""
1$
#730
0$
#735
b100101000 3
b100101000 ~
b100101000 !"
b100101000 0
b100101000 x
b100101000 |
b100101000 1
b100101000 W
b100101000 Y
b100101000 l
b100101000 v
b100100100 2
b100100100 X
b100100100 d
b100100100 ""
1$
#740
0$
